…
Другой атакующий установил автоматическую задачу в системном
планировщике сron для экспорта содержимого внутренней wiki системы. Эта
система генерирует большое количество трафика в нерабочие часы, больше
чем остальные хосты. Определите IP этой системы. Известно, что ее IP
адрес отличается от нарушителя из предыдущей задачи.

``` r
hourly_traffic <- internal_traffic%>%select(timestamp, src, dst, bytes)%>%mutate(time=hour(as_datetime(timestamp/1000))) %>%filter(time>=0&time<=24)%>% group_by(time)%>%summarise(trafictime=n())%>%arrange(desc(time))
```

``` r
print(hourly_traffic)
```

    # A tibble: 24 × 2
        time trafictime
       <int>      <int>
     1    23    4488093
     2    22    4489703
     3    21    4487109
     4    20    4482712
     5    19    4487345
     6    18    4489386
     7    17    4483578
     8    16    4490576
     9    15     168355
    10    14     169028
    # ℹ 14 more rows
…
