…
    # A tibble: 1 × 1
      name       
      <chr>      
    1 Yarael Poof

#### 6. Найти всех персонажей ниже 170

``` r
starwars %>% 
  filter(height < 170) %>%
  select(name)
```

    # A tibble: 22 × 1
       name                 
       <chr>                
     1 C-3PO                
     2 R2-D2                
     3 Leia Organa          
     4 Beru Whitesun Lars   
     5 R5-D4                
     6 Yoda                 
     7 Mon Mothma           
     8 Wicket Systri Warrick
     9 Nien Nunb            
    10 Watto                
    # ℹ 12 more rows

#### 7. Подсчитать ИМТ (индекс массы тела) для всех персонажей.

``` r
starwars %>%
  mutate("IMB" = mass / height^2) %>%
  select(name, IMB)
```

    # A tibble: 87 × 2
       name                   IMB
       <chr>                <dbl>
     1 Luke Skywalker     0.00260
     2 C-3PO              0.00269
     3 R2-D2              0.00347
     4 Darth Vader        0.00333
     5 Leia Organa        0.00218
     6 Owen Lars          0.00379
     7 Beru Whitesun Lars 0.00275
     8 R5-D4              0.00340
     9 Biggs Darklighter  0.00251
    10 Obi-Wan Kenobi     0.00232
    # ℹ 77 more rows
…
#### 11. Подсчитать среднюю длину имени в каждой расе вселенной Звездных войн.

``` r
starwars %>% 
  mutate(len=nchar(name)) %>% 
  group_by(species) %>% 
  summarise('mean' = mean(len)) %>% 
  select(species,mean) %>%
  filter(!is.na(species))
```

    # A tibble: 37 × 2
       species    mean
       <chr>     <dbl>
     1 Aleena    12   
     2 Besalisk  15   
     3 Cerean    12   
     4 Chagrian  10   
     5 Clawdite  10   
     6 Droid      4.83
     7 Dug        7   
     8 Ewok      21   
     9 Geonosian 17   
    10 Gungan    11.7 
    # ℹ 27 more rows
…
